{
  "category_id": "95",
  "page": 1,
  "parent_category_id": 59,
  "page_size": 15,
  "searchAttributes": [{
    "applied_max": "5",
    "applied_min": "5",
    "applied_value": false,
    "attribute_name": "DISPLAY",
    "attribute_type": "range",
    "attribute_unit": "inches",
    "category_id": "59",
    "filter_applied": true,
    "group_name": "DISPLAY",
    "id": "4",
    "is_primary": true,
    "max": "5",
    "min": "5",
    "step_size": "0.5"
  }]
}